<?xml version="1.0" encoding="UTF-8"?>
<svg width="84px" height="93px" viewBox="0 0 84 93" version="1.1" xmlns="http://www.w3.org/2000/svg" xmlns:xlink="http://www.w3.org/1999/xlink">
    <!-- Generator: Sketch 46.2 (44496) - http://www.bohemiancoding.com/sketch -->
    <title>Combined Shape</title>
    <desc>Created with Sketch.</desc>
    <defs></defs>
    <g id="Symbols" stroke="none" stroke-width="1" fill="none" fill-rule="evenodd">
        <g id="back" fill-rule="nonzero" fill="#9B9B9B">
            <path d="M78.1372526,29.3409138 C85.1832085,41.2214707 86.0248968,56.194636 79.452,69.302 C72.135,83.891 57.376,92.33 42.07,92.33 C35.786,92.33 29.413,90.906 23.424,87.901 C2.85,77.584 -5.499,52.451 4.822,31.875 C10.895,19.764 22.529,11.325 35.947,9.304 C36.355,9.244 36.75,9.268 37.135,9.331 L36.984,2.119 C36.978,1.559 37.191,1.029 37.563,0.64 C37.749,0.447 37.974,0.286 38.225,0.178 C38.993,-0.162 39.886,-0.005 40.492,0.577 L51.871,11.48 C52.697,12.271 52.727,13.585 51.933,14.413 L41.029,25.792 C40.451,26.398 39.561,26.593 38.779,26.288 C38,25.984 37.479,25.238 37.458,24.399 C37.262,19.3816667 37.1393333,16.8756667 37.09,16.881 C26.135,18.531 16.635,25.42 11.677,35.31 C7.594,43.447 6.925,52.682 9.791,61.324 C12.66,69.958 18.723,76.963 26.857,81.046 C34.993,85.125 44.234,85.796 52.87,82.925 C61.508,80.061 68.514,73.997 72.596,65.859 C77.8233948,55.4354125 77.3069543,43.5666113 71.9607541,33.9952393 L78.1372526,29.3409138 Z" id="Combined-Shape"></path>
        </g>
    </g>
</svg>