<?xml version="1.0" encoding="UTF-8"?>
<svg width="23px" height="19px" viewBox="0 0 23 19" version="1.1" xmlns="http://www.w3.org/2000/svg" xmlns:xlink="http://www.w3.org/1999/xlink">
    <!-- Generator: Sketch 46.2 (44496) - http://www.bohemiancoding.com/sketch -->
    <title>heart2</title>
    <desc>Created with Sketch.</desc>
    <defs></defs>
    <g id="Symbols" stroke="none" stroke-width="1" fill="none" fill-rule="evenodd">
        <g id="heart2" fill-rule="nonzero" fill="#F1E71B">
            <g id="heart-copy-4">
                <path d="M21.1328237,1.7980961 C19.9293789,0.663573574 18.3295474,0.0392552553 16.6275474,0.0392552553 C14.9253053,0.0392552553 13.3252921,0.663573574 12.1214237,1.7980961 L11.5283868,2.35725526 L10.93535,1.7980961 C9.73184474,0.663573574 8.13146842,0.0392552553 6.42958947,0.0392552553 C4.72777105,0.0392552553 3.12727368,0.663573574 1.92388947,1.7980961 C-0.560655263,4.14045946 -0.560655263,7.95158559 1.92388947,10.293036 L10.8267053,18.6856156 C10.9722711,18.8233514 11.1534868,18.9076817 11.3428132,18.9401471 C11.4063053,18.951958 11.4701605,18.9574354 11.5341368,18.9574354 C11.7859868,18.9574354 12.0382605,18.8668859 12.2300684,18.6856156 L21.1328842,10.293036 C23.61755,7.95158559 23.61755,4.14045946 21.1328237,1.7980961 Z M19.7409605,8.98100901 L11.5284474,16.7229099 L3.31575263,8.98100901 C1.59874211,7.36264264 1.59874211,4.72945946 3.31575263,3.11023724 C4.14744474,2.32633033 5.25362368,1.89515015 6.42958947,1.89515015 C7.60567632,1.89515015 8.71155263,2.32633033 9.54294211,3.11023724 L10.8324553,4.32623724 C11.2020895,4.67417117 11.8551684,4.67417117 12.2247421,4.32623724 L13.5137711,3.11023724 C14.3452211,2.32633033 15.4511579,1.89515015 16.6276079,1.89515015 C17.8036947,1.89515015 18.9095105,2.32633033 19.7409605,3.11023724 C21.4581526,4.72945946 21.4581526,7.36258559 19.7409605,8.98100901 Z" id="Shape"></path>
            </g>
        </g>
    </g>
</svg>