<?xml version="1.0" encoding="UTF-8"?>
<svg width="22px" height="22px" viewBox="0 0 22 22" version="1.1" xmlns="http://www.w3.org/2000/svg" xmlns:xlink="http://www.w3.org/1999/xlink">
    <!-- Generator: Sketch 46.2 (44496) - http://www.bohemiancoding.com/sketch -->
    <title>user1</title>
    <desc>Created with Sketch.</desc>
    <defs>
        <path d="M14.8303541,13.5487043 C16.9358911,12.2670545 18.3090506,9.97845525 18.3090506,7.32364591 C18.3090934,3.29563424 15.0134163,0 10.9854475,0 C6.9574786,0 3.66180156,3.29563424 3.66180156,7.32364591 C3.66180156,9.97845525 5.03496109,12.2670973 7.14049805,13.5487043 C3.4786965,14.9219066 0.73233463,18.1259883 0,21.9708949 L1.83092218,21.9708949 C2.74636187,17.759821 6.49975875,14.647249 10.9854475,14.647249 C15.4711362,14.647249 19.2245331,17.7597782 20.1399728,21.9708949 L21.9708949,21.9708949 C21.2385603,18.0344358 18.4921984,14.8303541 14.8303541,13.5487043 Z M5.49272374,7.32364591 C5.49272374,4.30266926 7.96447082,1.83092218 10.9854475,1.83092218 C14.0064241,1.83092218 16.4781712,4.30266926 16.4781712,7.32364591 C16.4781712,10.3446226 14.0064241,12.8163696 10.9854475,12.8163696 C7.96447082,12.8163696 5.49272374,10.3446226 5.49272374,7.32364591 Z" id="path-1"></path>
        <filter x="-45.5%" y="-36.4%" width="191.0%" height="191.0%" filterUnits="objectBoundingBox" id="filter-2">
            <feOffset dx="0" dy="2" in="SourceAlpha" result="shadowOffsetOuter1"></feOffset>
            <feGaussianBlur stdDeviation="3" in="shadowOffsetOuter1" result="shadowBlurOuter1"></feGaussianBlur>
            <feColorMatrix values="0 0 0 0 0.901960784   0 0 0 0 0   0 0 0 0 0.494117647  0 0 0 1 0" type="matrix" in="shadowBlurOuter1"></feColorMatrix>
        </filter>
    </defs>
    <g id="Symbols" stroke="none" stroke-width="1" fill="none" fill-rule="evenodd">
        <g id="user1" fill-rule="nonzero">
            <g id="Shape">
                <use fill="black" fill-opacity="1" filter="url(#filter-2)" xlink:href="#path-1"></use>
                <use fill="#E6007E" fill-rule="evenodd" xlink:href="#path-1"></use>
            </g>
        </g>
    </g>
</svg>